Processing JSON data (Optional) – statistics-with-R
…
Write the JSON file to csv

If we try to write our json_data dataframe to a csv as we would usually in a regular dataframe, we won’t get the desired result. Using the write_csv function from the {readr} package won’t give you an error for list columns, but you’ll only see missing (i.e. NA) values in these columns. Let’s try it out to confirm:

write_csv(json_data, "json_data_with_list_columns.csv")
read_csv("json_data_with_list_columns.csv")

To write out as a csv while maintaining the data within the list columns, we will need to “flatten” these columns. One way to do this is to convert these list columns into character types. (However, we don’t want to change the data types for any of the other columns). Here’s one way to do this using tidyverse. This command only applies the as.character command to those columns ‘where’ is.list is TRUE.

flattened_json_data <- json_data %>% 
  mutate(across(where(is.list), as.character))
flattened_json_data

# A tibble: 131 × 74
   C06_rooms B19_grand_liv A08_ward E01_water_use B18_sp_parents_liv
       <int> <chr>         <chr>    <chr>         <chr>             
 1         1 no            ward2    no            yes               
 2         1 yes           ward2    yes           yes               
 3         1 no            ward2    no            no                
 4         1 no            ward2    no            no                
 5         1 yes           ward2    no            no                
 6         1 no            ward2    no            no                
 7         1 yes           ward2    yes           no                
 8         3 yes           ward1    yes           yes               
 9         1 yes           ward2    yes           no                
10         5 no            ward2    yes           no                
# ℹ 121 more rows
# ℹ 69 more variables: B16_years_liv <int>, E_yes_group_count <chr>,
#   F_liv <chr>, `_note2` <lgl>, instanceID <chr>, B20_sp_grand_liv <chr>,
#   F10_liv_owned_other <lgl>, `_note1` <lgl>, F12_poultry <chr>,
#   D_plots_count <chr>, C02_respondent_wall_type_other <lgl>,
#   C02_respondent_wall_type <chr>, C05_buildings_in_compound <int>,
#   `_remitters` <chr>, E18_months_no_water <chr>, F07_use_income <chr>, …
…
